{"meta":{"code":200,"status":"success","message":"Products retrieved successfully."},"data":{"current_page":1,"data":[{"id":1,"name":"Basic Colored Sweatpants With Elastic Hems","slug":"basic-colored-sweatpants-with-elastic-hems","description":"Quisque varius diam vel metus mattis, id aliquam diam rhoncus.\n                Proin vitae magna in dui finibus malesuada et at nulla.\n                Morbi elit ex, viverra vitae ante vel, blandit feugiat ligula.\n                Fusce fermentum iaculis nibh, at sodales leo maximus a.\n                Nullam ultricies sodales nunc, in pellentesque lorem mattis quis.\n                Cras imperdiet est in nunc tristique lacinia.\n                Nullam aliquam mauris eu accumsan tincidunt.\n                Suspendisse velit ex, aliquet vel ornare vel, dignissim a tortor.","price":250000,"is_available":1,"featured":1,"featured_image_id":1,"created_at":null,"updated_at":"2023-11-29T06:30:29.000000Z","deleted_at":null,"category_id":1,"featured_image":{"id":1,"image":"product-1.jpg"},"product_image":[{"id":1,"image":"product-1.jpg","created_at":"2023-11-29T06:30:29.000000Z","updated_at":"2023-11-29T06:30:29.000000Z","product_id":1},{"id":2,"image":"product-2.jpg","created_at":null,"updated_at":null,"product_id":1},{"id":3,"image":"product-3.jpg","created_at":null,"updated_at":null,"product_id":1},{"id":4,"image":"product-4.jpg","created_at":null,"updated_at":null,"product_id":1},{"id":5,"image":"product-5.jpg","created_at":null,"updated_at":null,"product_id":1}]},{"id":3,"name":"Check Overshirt With Pocket Detail","slug":"check-overshirt-with-pocket-detail","description":"Quisque varius diam vel metus mattis, id aliquam diam rhoncus.\n                Proin vitae magna in dui finibus malesuada et at nulla.\n                Morbi elit ex, viverra vitae ante vel, blandit feugiat ligula.\n                Fusce fermentum iaculis nibh, at sodales leo maximus a.\n                Nullam ultricies sodales nunc, in pellentesque lorem mattis quis.\n                Cras imperdiet est in nunc tristique lacinia.\n                Nullam aliquam mauris eu accumsan tincidunt.\n                Suspendisse velit ex, aliquet vel ornare vel, dignissim a tortor.","price":650000,"is_available":1,"featured":1,"featured_image_id":11,"created_at":null,"updated_at":"2023-11-29T06:30:29.000000Z","deleted_at":null,"category_id":1,"featured_image":{"id":11,"image":"product-1.jpg"},"product_image":[{"id":11,"image":"product-1.jpg","created_at":"2023-11-29T06:30:29.000000Z","updated_at":"2023-11-29T06:30:29.000000Z","product_id":3},{"id":12,"image":"product-2.jpg","created_at":null,"updated_at":null,"product_id":3},{"id":13,"image":"product-3.jpg","created_at":null,"updated_at":null,"product_id":3},{"id":14,"image":"product-4.jpg","created_at":null,"updated_at":null,"product_id":3},{"id":15,"image":"product-5.jpg","created_at":null,"updated_at":null,"product_id":3}]},{"id":7,"name":"Oversize Hoodie With Zipper","slug":"oversize-hoodie-with-zipper","description":"Quisque varius diam vel metus mattis, id aliquam diam rhoncus.\n                Proin vitae magna in dui finibus malesuada et at nulla.\n                Morbi elit ex, viverra vitae ante vel, blandit feugiat ligula.\n                Fusce fermentum iaculis nibh, at sodales leo maximus a.\n                Nullam ultricies sodales nunc, in pellentesque lorem mattis quis.\n                Cras imperdiet est in nunc tristique lacinia.\n                Nullam aliquam mauris eu accumsan tincidunt.\n                Suspendisse velit ex, aliquet vel ornare vel, dignissim a tortor.","price":800000,"is_available":1,"featured":0,"featured_image_id":31,"created_at":null,"updated_at":"2023-11-29T06:30:30.000000Z","deleted_at":null,"category_id":3,"featured_image":{"id":31,"image":"product-1.jpg"},"product_image":[{"id":31,"image":"product-1.jpg","created_at":"2023-11-29T06:30:29.000000Z","updated_at":"2023-11-29T06:30:29.000000Z","product_id":7},{"id":32,"image":"product-2.jpg","created_at":null,"updated_at":null,"product_id":7},{"id":33,"image":"product-3.jpg","created_at":null,"updated_at":null,"product_id":7},{"id":34,"image":"product-4.jpg","created_at":null,"updated_at":null,"product_id":7},{"id":35,"image":"product-5.jpg","created_at":null,"updated_at":null,"product_id":7}]},{"id":5,"name":"Pouch Pocket Hoodie Orange","slug":"pouch-pocket-hoodie-orange","description":"Quisque varius diam vel metus mattis, id aliquam diam rhoncus.\n                Proin vitae magna in dui finibus malesuada et at nulla.\n                Morbi elit ex, viverra vitae ante vel, blandit feugiat ligula.\n                Fusce fermentum iaculis nibh, at sodales leo maximus a.\n                Nullam ultricies sodales nunc, in pellentesque lorem mattis quis.\n                Cras imperdiet est in nunc tristique lacinia.\n                Nullam aliquam mauris eu accumsan tincidunt.\n                Suspendisse velit ex, aliquet vel ornare vel, dignissim a tortor.","price":420000,"is_available":1,"featured":1,"featured_image_id":21,"created_at":null,"updated_at":"2023-11-29T06:30:29.000000Z","deleted_at":null,"category_id":2,"featured_image":{"id":21,"image":"product-1.jpg"},"product_image":[{"id":21,"image":"product-1.jpg","created_at":"2023-11-29T06:30:29.000000Z","updated_at":"2023-11-29T06:30:29.000000Z","product_id":5},{"id":22,"image":"product-2.jpg","created_at":null,"updated_at":null,"product_id":5},{"id":23,"image":"product-3.jpg","created_at":null,"updated_at":null,"product_id":5},{"id":24,"image":"product-4.jpg","created_at":null,"updated_at":null,"product_id":5},{"id":25,"image":"product-5.jpg","created_at":null,"updated_at":null,"product_id":5}]},{"id":6,"name":"Quilted Bomber Jacket With Ribbed Trims","slug":"quilted-bomber-jacket-with-ribbed-trims","description":"Quisque varius diam vel metus mattis, id aliquam diam rhoncus.\n                Proin vitae magna in dui finibus malesuada et at nulla.\n                Morbi elit ex, viverra vitae ante vel, blandit feugiat ligula.\n                Fusce fermentum iaculis nibh, at sodales leo maximus a.\n                Nullam ultricies sodales nunc, in pellentesque lorem mattis quis.\n                Cras imperdiet est in nunc tristique lacinia.\n                Nullam aliquam mauris eu accumsan tincidunt.\n                Suspendisse velit ex, aliquet vel ornare vel, dignissim a tortor.","price":550000,"is_available":1,"featured":0,"featured_image_id":26,"created_at":null,"updated_at":"2023-11-29T06:30:29.000000Z","deleted_at":null,"category_id":3,"featured_image":{"id":26,"image":"product-1.jpg"},"product_image":[{"id":26,"image":"product-1.jpg","created_at":"2023-11-29T06:30:29.000000Z","updated_at":"2023-11-29T06:30:29.000000Z","product_id":6},{"id":27,"image":"product-2.jpg","created_at":null,"updated_at":null,"product_id":6},{"id":28,"image":"product-3.jpg","created_at":null,"updated_at":null,"product_id":6},{"id":29,"image":"product-4.jpg","created_at":null,"updated_at":null,"product_id":6},{"id":30,"image":"product-5.jpg","created_at":null,"updated_at":null,"product_id":6}]},{"id":2,"name":"Rose Printed Hoodie","slug":"rose-printed-hoodie","description":"Quisque varius diam vel metus mattis, id aliquam diam rhoncus.\n                Proin vitae magna in dui finibus malesuada et at nulla.\n                Morbi elit ex, viverra vitae ante vel, blandit feugiat ligula.\n                Fusce fermentum iaculis nibh, at sodales leo maximus a.\n                Nullam ultricies sodales nunc, in pellentesque lorem mattis quis.\n                Cras imperdiet est in nunc tristique lacinia.\n                Nullam aliquam mauris eu accumsan tincidunt.\n                Suspendisse velit ex, aliquet vel ornare vel, dignissim a tortor.","price":450000,"is_available":1,"featured":1,"featured_image_id":6,"created_at":null,"updated_at":"2023-11-29T06:30:29.000000Z","deleted_at":null,"category_id":1,"featured_image":{"id":6,"image":"product-1.jpg"},"product_image":[{"id":6,"image":"product-1.jpg","created_at":"2023-11-29T06:30:29.000000Z","updated_at":"2023-11-29T06:30:29.000000Z","product_id":2},{"id":7,"image":"product-2.jpg","created_at":null,"updated_at":null,"product_id":2},{"id":8,"image":"product-3.jpg","created_at":null,"updated_at":null,"product_id":2},{"id":9,"image":"product-4.jpg","created_at":null,"updated_at":null,"product_id":2},{"id":10,"image":"product-5.jpg","created_at":null,"updated_at":null,"product_id":2}]},{"id":9,"name":"T-Shirt","slug":"t-shirt","description":null,"price":100000,"is_available":1,"featured":0,"featured_image_id":null,"created_at":"2023-11-29T07:35:54.000000Z","updated_at":"2023-11-29T07:35:54.000000Z","deleted_at":null,"category_id":2,"featured_image":null,"product_image":[]},{"id":10,"name":"T-Shirt1","slug":"t-shirt1","description":null,"price":100000,"is_available":1,"featured":0,"featured_image_id":null,"created_at":"2023-11-29T07:37:08.000000Z","updated_at":"2023-11-29T07:37:08.000000Z","deleted_at":null,"category_id":2,"featured_image":null,"product_image":[]},{"id":11,"name":"T-Shirt2","slug":"t-shirt2","description":null,"price":100000,"is_available":1,"featured":0,"featured_image_id":null,"created_at":"2023-11-29T07:50:39.000000Z","updated_at":"2023-11-29T07:50:39.000000Z","deleted_at":null,"category_id":2,"featured_image":null,"product_image":[]},{"id":12,"name":"T-Shirt3","slug":"t-shirt3","description":null,"price":100000,"is_available":1,"featured":0,"featured_image_id":null,"created_at":"2023-11-29T07:51:11.000000Z","updated_at":"2023-11-29T07:51:11.000000Z","deleted_at":null,"category_id":2,"featured_image":null,"product_image":[{"id":41,"image":"images\/products\/2023\/11\/29\/LNgNdkfY3jZVDnYITUlxGtb1GwSjJeu7qnUGABmf.png","created_at":"2023-11-29T07:51:11.000000Z","updated_at":"2023-11-29T07:51:11.000000Z","product_id":12}]}],"first_page_url":"http:\/\/roughy-loyal-daily.ngrok-free.app\/api\/product?min=65000&page=1","from":1,"last_page":2,"last_page_url":"http:\/\/roughy-loyal-daily.ngrok-free.app\/api\/product?min=65000&page=2","links":[{"url":null,"label":"&laquo; Previous","active":false},{"url":"http:\/\/roughy-loyal-daily.ngrok-free.app\/api\/product?min=65000&page=1","label":"1","active":true},{"url":"http:\/\/roughy-loyal-daily.ngrok-free.app\/api\/product?min=65000&page=2","label":"2","active":false},{"url":"http:\/\/roughy-loyal-daily.ngrok-free.app\/api\/product?min=65000&page=2","label":"Next &raquo;","active":false}],"next_page_url":"http:\/\/roughy-loyal-daily.ngrok-free.app\/api\/product?min=65000&page=2","path":"http:\/\/roughy-loyal-daily.ngrok-free.app\/api\/product","per_page":10,"prev_page_url":null,"to":10,"total":13}}